------------------------------[NEW POSE]---------------------------------
[0.016465808881180627, -1.2532101293291364, 0.08524950761454446, -2.268788227081299, 0.09490306722266334, 1.0182527359894344, 1.006181390966688]
position: 
  x: 0.0948797279196
  y: 0.0448625292049
  z: 0.674058974685
orientation: 
  x: 0.897568580695
  y: -0.440874796439
  z: -0.000128481346006
  w: 0.000200762964544
------------------------------[/NEW POSE]--------------------------------

------------------------------[NEW POSE]---------------------------------
[0.0011159725037536451, -0.7909530577659607, 0.07551203210013253, -1.4647889372961862, 0.08586832902261189, 0.6771149064813341, 1.033160241331373]
position: 
  x: 0.0948863142685
  y: 0.0450397780726
  z: 0.857490055179
orientation: 
  x: -0.897842204901
  y: 0.440317354668
  z: 7.42354273387e-06
  w: 4.71418461705e-05
------------------------------[/NEW POSE]--------------------------------

------------------------------[NEW POSE]---------------------------------
[-0.025816994230662072, -0.4650512459618705, 0.028184626159923416, -2.100057274682181, -0.01841426614139761, 1.8723570035185133, 0.9172452810832432]
position: 
  x: 0.431266450644
  y: 0.00202976133176
  z: 0.626760809748
orientation: 
  x: -0.891187654736
  y: 0.437669163518
  z: -0.112873696134
  w: 0.038597876535
------------------------------[/NEW POSE]--------------------------------

------------------------------[NEW POSE]---------------------------------
[-0.19073071600709643, -0.3715157768726349, -0.17920237130778177, -1.9210848444529942, -0.09054788167987551, 1.4461019211156028, 0.8940706317765372]
position: 
  x: 0.385183748865
  y: -0.17592984836
  z: 0.629389122156
orientation: 
  x: 0.808275339435
  y: -0.586142161558
  z: -0.0490959867928
  w: 0.0267941446284
------------------------------[/NEW POSE]--------------------------------

------------------------------[NEW POSE]---------------------------------
[-0.0009197480029293469, 0.06139417644483702, 0.05186298215176378, -1.5264630628313336, -0.039388854375907355, 1.5728970338617052, 0.8523846554756165]
position: 
  x: 0.572943891464
  y: 0.0240006909655
  z: 0.611174982548
orientation: 
  x: 0.920642679254
  y: -0.389916605277
  z: 0.00128085711581
  w: 0.0195053190031
------------------------------[/NEW POSE]--------------------------------

------------------------------[NEW POSE]---------------------------------
[0.46552782934052606, -0.5309310064315796, 0.959841002191816, -1.9162869103295463, 0.42775733364479884, 1.588877271413803, 0.5805950617790222]
position: 
  x: -0.0644908191329
  y: 0.475852757926
  z: 0.590255775861
orientation: 
  x: 0.927737592408
  y: 0.373232951161
  z: -0.000236979789943
  w: 0.000260079474038
------------------------------[/NEW POSE]--------------------------------

------------------------------[NEW POSE]---------------------------------
[-0.3611615173476083, -0.15645519462653568, 0.7926082295349666, -1.2453326971871512, 0.1222997180053166, 1.1371957889625004, 0.7231609211649214]
position: 
  x: 0.381108542479
  y: 0.245433526445
  z: 0.782458693345
orientation: 
  x: 0.992391987574
  y: -0.123117660756
  z: -0.000348792502397
  w: 0.000250905301554
------------------------------[/NEW POSE]--------------------------------

------------------------------[NEW POSE]---------------------------------
[-8.02155719887066e-05, -0.785086845602308, -6.148292373732797e-05, -2.355806473050799, 0.00027453998602660636, 1.5705414038045065, 0.7846601809774126]
position: 
  x: 0.306952289416
  y: -1.57083772467e-05
  z: 0.590345385534
orientation: 
  x: -0.923997580261
  y: 0.382398273412
  z: 0.0001429702259
  w: 0.000108267798121
------------------------------[/NEW POSE]--------------------------------

------------------------------[NEW POSE]---------------------------------
[-0.00022402627849286156, -0.43028271770477294, -0.0007189201767157231, -0.5623857798576355, 0.0006164448595206652, 0.132585203903062, 0.7848125570161002]
position: 
  x: 1.0380451893e-05
  y: -0.000117505888994
  z: 0.939172466238
orientation: 
  x: -0.923938715666
  y: 0.382540393788
  z: -0.000156563060624
  w: 0.000268891388882
------------------------------[/NEW POSE]--------------------------------

